{"data":{"searchProducts":{"totalResults":79,"page":3,"pageSize":24,"totalPages":4,"queryId":"41ee5ddb01819a8e0a1052bc5786ff67","analyticsIndexName":"master_manor_prod_Product_default_de_priceValue_asc","products":[{"id":"manorProductCatalog/Online/mp-6ccd2f14-tProduct","baseCode":"mp-6ccd2f14-0product","titles":{"first":"Gigaset","second":"","third":"Smartphone - Speziell und leicht zubedienende Benutzeroberfläche","__typename":"Titles"},"priceValue":{"currency":"CHF","amount":327.95,"digits":2,"formattedValue":"327.95","priceType":null,"__typename":"Price"},"originalPrice":{"currency":"CHF","amount":327.95,"digits":2,"formattedValue":"327.95","priceType":null,"__typename":"Price"},"uvpPrice":null,"stock":{"level":4,"status":"OUT_OF_STOCK","__typename":"Stock"},"variantColors":[],"imageUrls":{"mobile":"https://i8.amplience.net/i/manor/mp-6ccd2f14-tProduct_mainImage","tablet":"https://i8.amplience.net/i/manor/mp-6ccd2f14-tProduct_mainImage","desktop":"https://i8.amplience.net/i/manor/mp-6ccd2f14-tProduct_mainImage","__typename":"IndexedImages"},"labels":[],"discountLabels":[],"averageRating":3.8776,"brandId":"gigaset","brandName":"Gigaset","category":["multimedia","telephone-navigation-smartphones","Web","multimedia-telephone-navigation"],"color":"Schwarz","size":"64 GB","code":"mp-6ccd2f14-tproduct","description":"Auch im Alter smart kommunizieren - mit neuester Technik und einfacher Bedienung Bleiben Sie am Puls der Zeit - und zwar in jeder Lebensphase. Das Gigaset GS5 senior ist dafür die beste Wahl. Mit neuester Technologie und ohne überflüssigen Schnickschnack. Die eigens entwickelte Benutzeroberfläche des GS5 senior bietet auf einen Blick die wichtigsten Funktionen und lässt sich mit der modifizierten Tastatur intuitiv bedienen. Gleichzeitig ist das GS5 senior ein vollwertiges Smartphone auf der Höhe der Zeit mit intelligenter Notruffunktion, allen verfügbaren Android-Apps wie WhatsApp, Dreifach-Kamera und kontaktfreier Bezahlfunktion. Ein leistungsstarker Prozessor macht das Smartphone besonders flink und zusätzliche 64 GB interner Speicher bieten genug Platz für reichlich Fotos und Videos. Nicht zuletzt ist das Gerät Made in Germany. Das Wesentliche im Blick: Auf der übersichtlichen Benutzeroberfläche Auf dem individuell einstellbaren Startscreen können bis zu acht Anwendungen als grosse, selbsterklärende und überschaubar angeordnete Symbole platziert werden. Das kontrastreiche Menü mit grosser Schrift und eindeutigen Symbolen macht die Bedienung des Gigaset GS5 senior auch für ungeübte Benutzer denkbar leicht. Immer richtig verbunden: Das GS5 senior mit grosser Tastatur für einfaches Tippen sowie Diktierfunktion Für leichte Lesbarkeit erscheinen Ziffern und Buchstaben im Wählmodus extra gross. Zusätzlich sorgt die alphabetische Ordnung der Buchstaben dafür, dass Sie schneller tippen können und beim Verfassen von Nachrichten oder der Suche nach Kontakten wertvolle Zeit sparen. Und mit Hilfe der Spracherkennung wird die Texteingabe besonders einfach: Diktieren Sie Ihre Nachricht - fertig. Ihre Sicherheit ist wichtig: Drei Notrufoptionen für schnelle Hilfe Für ein sicheres Gefühl garantieren unterschiedliche Notruffunktionen, die Sie mit nur wenigen Handgriffen betätigen können","isFromPrice":false,"isManorProduct":null,"link":"https://www.manor.ch/p/mp-6ccd2f14-tproduct","name":"Smartphone - Speziell und leicht zubedienende Benutzeroberfläche","productDisplayConfig":{"hideRatings":false,"hideLabels":false,"hideAvailability":false,"hideCarousels":false,"__typename":"ProductDisplayConfig"},"gtin":"4250366869957","productBreadcrumbPath":["multimedia/multimedia-telephone-navigation/telephone-navigation-smartphones"],"offlineAvailabilityStatus":"OFFLINE_NOT_POSSIBLE","__typename":"IndexedProduct"},{"id":"manorProductCatalog/Online/mp-5c458139-tProduct","baseCode":"mp-5c458139-0product","titles":{"first":"SAMSUNG","second":"","third":"SM SAMSUNG GALAXY A34 5G BLACK 6,6 6+128GB DS ITA","__typename":"Titles"},"priceValue":{"currency":"CHF","amount":340.0,"digits":2,"formattedValue":"340.00","priceType":null,"__typename":"Price"},"originalPrice":{"currency":"CHF","amount":340.0,"digits":2,"formattedValue":"340.00","priceType":null,"__typename":"Price"},"uvpPrice":null,"stock":{"level":7,"status":"OUT_OF_STOCK","__typename":"Stock"},"variantColors":[],"imageUrls":{"mobile":"https://i8.amplience.net/i/manor/mp-5c458139-tProduct_mainImage","tablet":"https://i8.amplience.net/i/manor/mp-5c458139-tProduct_mainImage","desktop":"https://i8.amplience.net/i/manor/mp-5c458139-tProduct_mainImage","__typename":"IndexedImages"},"labels":[],"discountLabels":[],"averageRating":4.312,"brandId":"samsung","brandName":"SAMSUNG","category":["multimedia","telephone-navigation-smartphones","Web","multimedia-telephone-navigation"],"color":null,"size":"128 GB","code":"mp-5c458139-tproduct","description":"Samsung Galaxy A34 5G SM-A346B/DSN. Bildschirmdiagonale: 16,8 cm (6.6\"), Display-Auflösung: 1080 x 2408 Pixel, Display-Typ: OLED. Prozessorfamilie: MediaTek. RAM-Kapazität: 6 GB, Interne Speicherkapazität: 128 GB. Auflösung Rückkamera (numerisch): 48 MP, Rückkamera-Typ: Dreifach-Kamera. SIM-Kartensteckplätze: Hybride Dual-SIM. Installiertes Betriebssystem: Android 13. Akku-/Batteriekapazität: 5000 mAh. Produktfarbe: Graphit. Gewicht: 199 g","isFromPrice":false,"isManorProduct":null,"link":"https://www.manor.ch/p/mp-5c458139-tproduct","name":"SM SAMSUNG GALAXY A34 5G BLACK 6,6 6+128GB DS ITA","productDisplayConfig":{"hideRatings":false,"hideLabels":false,"hideAvailability":false,"hideCarousels":false,"__typename":"ProductDisplayConfig"},"gtin":"8806094813821","productBreadcrumbPath":["multimedia/multimedia-telephone-navigation/telephone-navigation-smartphones"],"offlineAvailabilityStatus":"OFFLINE_NOT_POSSIBLE","__typename":"IndexedProduct"},{"id":"manorProductCatalog/Online/mp-83640e79-tProduct","baseCode":"mp-83640e79-0product","titles":{"first":"XIAOMI","second":"","third":"11T 5G Dual SIM (8128GB, )","__typename":"Titles"},"priceValue":{"currency":"CHF","amount":343.95,"digits":2,"formattedValue":"343.95","priceType":null,"__typename":"Price"},"originalPrice":{"currency":"CHF","amount":343.95,"digits":2,"formattedValue":"343.95","priceType":null,"__typename":"Price"},"uvpPrice":null,"stock":{"level":4,"status":"OUT_OF_STOCK","__typename":"Stock"},"variantColors":[],"imageUrls":{"mobile":"https://i8.amplience.net/i/manor/mp-83640e79-tProduct_mainImage","tablet":"https://i8.amplience.net/i/manor/mp-83640e79-tProduct_mainImage","desktop":"https://i8.amplience.net/i/manor/mp-83640e79-tProduct_mainImage","__typename":"IndexedImages"},"labels":[],"discountLabels":[],"averageRating":0.0,"brandId":"xiaomi","brandName":"XIAOMI","category":["multimedia","telephone-navigation-smartphones","Web","multimedia-telephone-navigation"],"color":"Grau","size":"128 GB","code":"mp-83640e79-tproduct","description":"Atemberaubendes visuelles Erlebnis mit jedem Blick","isFromPrice":false,"isManorProduct":null,"link":"https://www.manor.ch/p/mp-83640e79-tproduct","name":"11T 5G Dual SIM (8128GB, )","productDisplayConfig":{"hideRatings":false,"hideLabels":false,"hideAvailability":false,"hideCarousels":false,"__typename":"ProductDisplayConfig"},"gtin":"6934177750649","productBreadcrumbPath":["multimedia/multimedia-telephone-navigation/telephone-navigation-smartphones"],"offlineAvailabilityStatus":"OFFLINE_NOT_POSSIBLE","__typename":"IndexedProduct"},{"id":"manorProductCatalog/Online/mp-ec8296f8-tProduct","baseCode":"mp-ec8296f8-0product","titles":{"first":"XIAOMI","second":"","third":"Xiaomi Mi 11 Lite 5G NE Dual 128GB Grün (8GB)","__typename":"Titles"},"priceValue":{"currency":"CHF","amount":348.4,"digits":2,"formattedValue":"348.40","priceType":null,"__typename":"Price"},"originalPrice":{"currency":"CHF","amount":368.4,"digits":2,"formattedValue":"368.40","priceType":null,"__typename":"Price"},"uvpPrice":{"currency":"CHF","amount":368.4,"digits":2,"formattedValue":"368.40","priceType":null,"__typename":"Price"},"stock":{"level":8,"status":"OUT_OF_STOCK","__typename":"Stock"},"variantColors":[],"imageUrls":{"mobile":"https://i8.amplience.net/i/manor/mp-ec8296f8-tProduct_01","tablet":"https://i8.amplience.net/i/manor/mp-ec8296f8-tProduct_01","desktop":"https://i8.amplience.net/i/manor/mp-ec8296f8-tProduct_01","__typename":"IndexedImages"},"labels":[],"discountLabels":[{"id":"discount_percentage","text":"-5%","backgroundColor":"#DA291C","textColor":"#FFFFFF","priority":3,"__typename":"Label"},{"id":"sale","text":"SALE","backgroundColor":"#DA291C","textColor":"#FFFFFF","priority":4,"__typename":"Label"}],"averageRating":0.0,"brandId":"xiaomi","brandName":"XIAOMI","category":["multimedia","telephone-navigation-smartphones","Web","multimedia-telephone-navigation"],"color":"Grün","size":"128 GB","code":"mp-ec8296f8-tproduct","description":"Nutzung von Mobiltelefonen\nStandard\n\nTelefonie\nXiaomi Mi Lite\n\nHandy-Modell\nMi 11 Lite\n\nMaße\n160,53 x 75,73 x 6,81 mm\n\nProduktgewicht\n158 g\n\nDAS Trunk Index\n0,954\n\nDas Kopf in w/kg\n0,594\n\nDas Indexmitglied in W/kg\n1.995\n\nReparierbarkeit\n7/10\n\nVerfügbarkeit von Ersatzteilen\n3 JAHRE\n\nÜberholt\nNö\n\nProduktlänge\n16,5 cm\n\nProduktbreite\n7,5 cm\n\nTiefe\n6,81 mm\n\nProdukthöhe\n0,8 cm\n\nProduktgewicht\n158 g","isFromPrice":false,"isManorProduct":null,"link":"https://www.manor.ch/p/mp-ec8296f8-tproduct","name":"Xiaomi Mi 11 Lite 5G NE Dual 128GB Grün (8GB)","productDisplayConfig":{"hideRatings":false,"hideLabels":false,"hideAvailability":false,"hideCarousels":false,"__typename":"ProductDisplayConfig"},"gtin":"7628397091666","productBreadcrumbPath":["multimedia/multimedia-telephone-navigation/telephone-navigation-smartphones"],"offlineAvailabilityStatus":"OFFLINE_NOT_POSSIBLE","__typename":"IndexedProduct"},{"id":"manorProductCatalog/Online/mp-876c4c66-tProduct","baseCode":"mp-876c4c66-0product","titles":{"first":"XIAOMI","second":"","third":"Xiaomi Mi 11 Lite 5G NE Dual 128GB Schwarz (8GB)","__typename":"Titles"},"priceValue":{"currency":"CHF","amount":348.4,"digits":2,"formattedValue":"348.40","priceType":null,"__typename":"Price"},"originalPrice":{"currency":"CHF","amount":368.4,"digits":2,"formattedValue":"368.40","priceType":null,"__typename":"Price"},"uvpPrice":{"currency":"CHF","amount":368.4,"digits":2,"formattedValue":"368.40","priceType":null,"__typename":"Price"},"stock":{"level":8,"status":"OUT_OF_STOCK","__typename":"Stock"},"variantColors":[],"imageUrls":{"mobile":"https://i8.amplience.net/i/manor/mp-876c4c66-tProduct_01","tablet":"https://i8.amplience.net/i/manor/mp-876c4c66-tProduct_01","desktop":"https://i8.amplience.net/i/manor/mp-876c4c66-tProduct_01","__typename":"IndexedImages"},"labels":[],"discountLabels":[{"id":"discount_percentage","text":"-5%","backgroundColor":"#DA291C","textColor":"#FFFFFF","priority":3,"__typename":"Label"},{"id":"sale","text":"SALE","backgroundColor":"#DA291C","textColor":"#FFFFFF","priority":4,"__typename":"Label"}],"averageRating":0.0,"brandId":"xiaomi","brandName":"XIAOMI","category":["multimedia","telephone-navigation-smartphones","Web","multimedia-telephone-navigation"],"color":"Schwarz","size":"128 GB","code":"mp-876c4c66-tproduct","description":"Nutzung von Mobiltelefonen\nStandard\n\nTelefonie\nXiaomi Mi Lite\n\nHandy-Modell\nMi 11 Lite\n\nMaße\n160,53 x 75,73 x 6,81 mm\n\nProduktgewicht\n158 g\n\nDAS Trunk Index\n0,954\n\nDas Kopf in w/kg\n0,594\n\nDas Indexmitglied in W/kg\n1.995\n\nReparierbarkeit\n7/10\n\nVerfügbarkeit von Ersatzteilen\n3 JAHRE\n\nÜberholt\nNö\n\nProduktlänge\n16,5 cm\n\nProduktbreite\n7,5 cm\n\nTiefe\n6,81 mm\n\nProdukthöhe\n0,8 cm\n\nProduktgewicht\n158 g","isFromPrice":false,"isManorProduct":null,"link":"https://www.manor.ch/p/mp-876c4c66-tproduct","name":"Xiaomi Mi 11 Lite 5G NE Dual 128GB Schwarz (8GB)","productDisplayConfig":{"hideRatings":false,"hideLabels":false,"hideAvailability":false,"hideCarousels":false,"__typename":"ProductDisplayConfig"},"gtin":"7614879515409","productBreadcrumbPath":["multimedia/multimedia-telephone-navigation/telephone-navigation-smartphones"],"offlineAvailabilityStatus":"OFFLINE_NOT_POSSIBLE","__typename":"IndexedProduct"},{"id":"manorProductCatalog/Online/mp-b8ffc284-tProduct","baseCode":"mp-b8ffc284-0product","titles":{"first":"SAMSUNG","second":"","third":"Galaxy A54 5G Dual SIM (8128GB, )","__typename":"Titles"},"priceValue":{"currency":"CHF","amount":348.95,"digits":2,"formattedValue":"348.95","priceType":null,"__typename":"Price"},"originalPrice":{"currency":"CHF","amount":348.95,"digits":2,"formattedValue":"348.95","priceType":null,"__typename":"Price"},"uvpPrice":null,"stock":{"level":10,"status":"OUT_OF_STOCK","__typename":"Stock"},"variantColors":[],"imageUrls":{"mobile":"https://i8.amplience.net/i/manor/mp-b8ffc284-tProduct_mainImage","tablet":"https://i8.amplience.net/i/manor/mp-b8ffc284-tProduct_mainImage","desktop":"https://i8.amplience.net/i/manor/mp-b8ffc284-tProduct_mainImage","__typename":"IndexedImages"},"labels":[],"discountLabels":[],"averageRating":4.3978,"brandId":"samsung","brandName":"SAMSUNG","category":["multimedia","telephone-navigation-smartphones","Web","multimedia-telephone-navigation"],"color":"Violett","size":"128 GB","code":"mp-b8ffc284-tproduct","description":"Schlicht und begeisternd","isFromPrice":false,"isManorProduct":null,"link":"https://www.manor.ch/p/mp-b8ffc284-tproduct","name":"Galaxy A54 5G Dual SIM (8128GB, )","productDisplayConfig":{"hideRatings":false,"hideLabels":false,"hideAvailability":false,"hideCarousels":false,"__typename":"ProductDisplayConfig"},"gtin":"8806094885736","productBreadcrumbPath":["multimedia/multimedia-telephone-navigation/telephone-navigation-smartphones"],"offlineAvailabilityStatus":"OFFLINE_NOT_POSSIBLE","__typename":"IndexedProduct"},{"id":"manorProductCatalog/Online/mp-1c60d478-tProduct","baseCode":"mp-1c60d478-0product","titles":{"first":"SAMSUNG","second":"","third":"Galaxy A53 5G Enterprise edition 16,5 cm (6.5 Zoll) Hybride Dual-SIM USB Typ-C 6 GB 128 GB 5000 mAh Schwarz","__typename":"Titles"},"priceValue":{"currency":"CHF","amount":350.0,"digits":2,"formattedValue":"350.00","priceType":null,"__typename":"Price"},"originalPrice":{"currency":"CHF","amount":350.0,"digits":2,"formattedValue":"350.00","priceType":null,"__typename":"Price"},"uvpPrice":null,"stock":{"level":4,"status":"OUT_OF_STOCK","__typename":"Stock"},"variantColors":[],"imageUrls":{"mobile":"https://i8.amplience.net/i/manor/mp-1c60d478-tProduct_01","tablet":"https://i8.amplience.net/i/manor/mp-1c60d478-tProduct_01","desktop":"https://i8.amplience.net/i/manor/mp-1c60d478-tProduct_01","__typename":"IndexedImages"},"labels":[],"discountLabels":[],"averageRating":0.0,"brandId":"samsung","brandName":"SAMSUNG","category":["multimedia","telephone-navigation-smartphones","Web","multimedia-telephone-navigation"],"color":"Schwarz","size":"128 GB","code":"mp-1c60d478-tproduct","description":"<b>Innovation erreicht uns schneller als wir denken</b>\nMit 5G wird deine Welt zu einer Galaxie. Die hyperschnelle Geschwindigkeit bedeutet entspanntes Streaming und Teilen mit Freunden und Familie.\n\n<b>Starke Prozessorleistung</b>\nZeit, sich an die Arbeit zu machen. Mit einem 5 nm Octa-Core-Prozessor ist dein Galaxy A53 5G für anspruchsvolles Multitasking gerüstet. RAM Plus erkennt dein Nutzungsverhalten und bietet zusätzlichen virtuellen Arbeitsspeicher für einen Energie-Schub.\n\n<b>Behalte deine Erinnerungen</b>\nDas ist eine ganze Menge. Mit 128 GB internem Speicher und Unterstützung für eine microSD-Karte mit bis zu 1 TB hast du ordentlich Platz für alle deine kostbaren Momente.\n\n<b>Ein Blick auf deine Welt, wie durch Kinokulissen</b>\nDas FHD+ Super AMOLED-Display ist ein wahrer Augenschmaus. Genieße mit dem großen 6,5 Zoll Infinity-O Display eine lebendige und farbenfrohe Sicht im Freien mit bis zu 800 Nits und reduziere gleichzeitig blaues Licht mit der Augenkomfort-Funktion.\n\n<b>Beeindruckendes Display, flüssiges Scrollen</b>\nAuf dem Super AMOLED-Display mit einer Bildwiederholrate von bis zu 120 Hz deines Galaxy A53 5G kannst du dich von beeindruckender Display-Technologie überzeugen. Alle Inhalte werden dir flüssig und mit wenig Unschärfe und einem phänomenalen Kontrast angezeigt.\n\n<b>Eine Kamera, die vieles kann</b>\nDie leistungsstarke Kamera des Galaxy A53 5G versetzt dich mit jeder Aufnahme ins Staunen. Erziele scharfe, klare Aufnahmen mit der 64 MP Weitwinkel-Kamera mit OIS, passe deinen Blickwinkel mit der Ultra-Weitwinkel-Kamera an und den Fokus mit der Tiefenkamera und gehe mit der Makrokamera nah an Details heran.\n\n<b>Actiongeladene Videos – kein Problem!</b>\nNimm deine Welt unterwegs auf. Mit der optischen Bildstabilisierung des Galaxy A53 5G sind deine Videos nicht verwackelt und du kannst auch bei schlechten Lichtverhältnissen feine Details einfangen.\n\n<b>Nimm schöne Fotos auf</b>\nDie leistungsstarke KI verbessert deine Fotos automatisch, sodass du beeindruckende Aufnahmen direkt nach dem Klick hast.\n\n<b>Viel Spaß mit dem Fun-Modus</b>\nHalte deine lustigsten Momente mit neuen Snapchat-Linsen fest, die regelmäßig im Fun-Modus aktualisiert werden. Stöbere und probiere deine Favoriten aus, halte deinen besten Look fest und teile ihn mit deinen Freunden.\n\n<b>Halte deine besten Momente fest</b>\nMit Bokeh-Effekten und zwei Objektiven für eine KI-gestützte Tiefenkamera kannst du die feinen Merkmale einfangen, die jedes Gesicht einzigartig machen. Lass den Hintergrund verschwimmen und konzentriere dich auf die Details, die das Leben im Bild zum Vorschein bringen.\n\n<b>Imposanter Akku für langanhaltenden Spaß</b>\nErlebe den 5.000 mAh (typisch) starken Akku für viel Zeit zum Streamen, Teilen, Spielen und mehr. Erwecke dein Galaxy A53 5G schnell wieder zum Leben mit der 25 Watt-Schnellladefunktion und aktiviere adaptives Energiesparen, um die Gesamtleistung des Akkus zu verbessern.\n\n<b>Ein hartnäckiges Smartphone</b>\nDas Galaxy A53 5G ist nach IP67 wasser- und staubdicht und hält bis zu 30 Minuten in 1 Meter tiefem Süßwasser stand. Mit dem zusätzlichen Schutz durch Gorilla Glass 5 ist dein Smartphone jetzt noch widerstandsfähiger und weniger anfällig für Kratzer.\n\n<b>Starker Klang zum Anfassen</b>\nFür ein räumliches Erlebnis ist kein Studio mehr nötig. Tauche in deine Lieblingsfilme, -songs und -videos mit Dolby Atmos ein und erlebe jede Note mit unglaublichen Details und außergewöhnlicher Klarheit.\n\n<b>Der Game Booster verpasst dir den Leistungsschub</b>\nGehe auf Nummer sicher. Der Game Booster verfolgt dein Spielverhalten, um die Akkulaufzeit, die Temperatur und den Speicher deines Galaxy A53 5G anzupassen, und blockiert gleichzeitig Hintergrundaktivitäten und Benachrichtigungen, damit du nicht die Konzentration verlierst.\n\n<b>Schütze, was dir wichtig ist</b>\nSamsung Knox ist sowohl in die Software als auch in die Hardware deines Galaxy A53 5G integriert und bietet starke Sicherheit ab dem ersten Einschalten. So kann die mehrschichtige Sicherheitsplattform deine privaten Daten vor fremden Blicken und Schadsoftware schützen.\n\n<b>Der Schlüssel bist du</b>\nDas Galaxy A53 5G verfügt über einen im Display integrierten optischen Fingerabdruckscanner, sodass du dein Smartphone mit einer einfachen Berührung entsperren kannst. Und mit Samsung Pass kannst du deinen Fingerabdruck auch verwenden, um dich sicher bei Apps und auf Webseiten anzumelden.\n\n<b>Deine Privatsphäre bleibt privat</b>\nBewahre deine persönlichen Fotos, Videos, Dateien, Apps und Daten sicher im Sicheren Ordner mit der Samsung Knox Sicherheitsplattform auf, die Ihre Informationen vor bösartigen Angriffen schützt. Fügen Sie Ihr Passwort oder Ihren Fingerabdruck hinzu, damit nur Sie auf Ihre Daten zugreifen können.\n\n<b>Intuitive Bedienung mit One UI</b>\nMit One UI kannst du dich auf das Wesentliche konzentrieren und dein Smartphone genauso komfortabel wie intuitiv bedienen. Passe die Benutzeroberfläche deines Galaxy A53 5G nach deinen Bedürfnissen an und finde schnell, was du suchst.\n\n<b>Einfach mühelose Aufmerksamkeit</b>\nBuds Auto Switching lenkt deine Ohren auf das, worauf du dich konzentrieren solltest. Wenn du dir auf deinem Tablet einen Film ansiehst, wird ein eingehender Anruf an dein Smartphone nahtlos weitergeleitet, damit du ihn annehmen kannst. Lege auf und du bist sofort wieder da, wo du aufgehört hast.\n\n<b>Teile die Musik mit deinen Freunden</b>\nBuds Together bietet dir das einfache, aber beeindruckende Erlebnis, unterwegs gemeinsam Lieblingssongs zu hören.\n\n<b>Nutze die Apps deines Galaxy A53 5G auf deinem PC</b>\nMit Link zu Windows kannst du auf deine Nachrichten, Benachrichtigungen und andere mobile Anwendungen direkt auf deinem PC zugreifen.\n\n<b>Dein Smartphone bleibt stabil</b>\nWenn du dich für ein Samsung Galaxy-Smartphone entscheidest, kannst du beruhigt sein. Mit der interaktiven Diagnose- und Optimierungsfunktion der Samsung Members App kannst du die Leistung deiner Geräte ganz einfach optimieren, und unsere Hotline hilft dir bei der Behebung von Problemen, wenn du zusätzliche Unterstützung benötigst.\n\n<b>Galaxy Enterprise Edition\nPerfekt für Ihr Unternehmen</b>\nEinfache Einrichtung, mehr Kontrolle und Schutz, um ihre Geschäfte immer und überall am Laufen zu halten.","isFromPrice":false,"isManorProduct":null,"link":"https://www.manor.ch/p/mp-1c60d478-tproduct","name":"Galaxy A53 5G Enterprise edition 16,5 cm (6.5 Zoll) Hybride Dual-SIM USB Typ-C 6 GB 128 GB 5000 mAh Schwarz","productDisplayConfig":{"hideRatings":false,"hideLabels":false,"hideAvailability":false,"hideCarousels":false,"__typename":"ProductDisplayConfig"},"gtin":"8806094268096","productBreadcrumbPath":["multimedia/multimedia-telephone-navigation/telephone-navigation-smartphones"],"offlineAvailabilityStatus":"OFFLINE_NOT_POSSIBLE","__typename":"IndexedProduct"}],"productListerConfig":{"hideCount":false,"__typename":"ProductListerConfig"},"searchUserData":null,"mixedRuleSearchResult":null,"__typename":"ProductSearchResult"}}}